Danish Kings
…
How many and which kings enjoyed a longer-than-average duration of
reign?

You have calculated the average duration above. Use it now to
filter() the duration column in
kings dataset. Display the result and also count the
resulting rows with count()

kings_longer_than_average_rule <- kings%>% 
  filter(duration>average_duration_vector)
select(kings_longer_than_average_rule,Name,duration)

## # A tibble: 25 × 2
##    Name                  duration
##    <chr>                    <dbl>
##  1 Gorm den Gamle              22
##  2 Svend 2. Estridsen          27
##  3 Niels                       30
##  4 Valdemar 1. den Store       25
##  5 Knud 4.                     20
##  6 Valdemar 2. Sejr            39
##  7 Erik 5. Klipping            27
##  8 Erik 6. Menved              33
##  9 Valdemar 4. Atterdag        35
## 10 Erik 7. af Pommern          43
## # ℹ 15 more rows
…
